Graphiques avec R : ggplot2
…
The grammar tells us that a statistical graphic is a mapping from data to aesthetic attributes (colour, shape, size) of geometric objects (points, lines, bars).1

H. Wickham. ggplot2: Elegant Graphics for Data Analysis. Use R!, Springer https://ggplot2-book.org

Data

Format

It must be a data.frame (or a tibble)

Good

penguins

# A tibble: 344 × 8
   species island    bill_length_mm bill_depth_mm flipper_length_mm body_mass_g
   <chr>   <chr>              <dbl>         <dbl>             <dbl>       <dbl>
 1 Adelie  Torgersen           39.1          18.7               181        3750
 2 Adelie  Torgersen           39.5          17.4               186        3800
 3 Adelie  Torgersen           40.3          18                 195        3250
 4 Adelie  Torgersen           NA            NA                  NA          NA
 5 Adelie  Torgersen           36.7          19.3               193        3450
 6 Adelie  Torgersen           39.3          20.6               190        3650
 7 Adelie  Torgersen           38.9          17.8               181        3625
 8 Adelie  Torgersen           39.2          19.6               195        4675
 9 Adelie  Torgersen           34.1          18.1               193        3475
10 Adelie  Torgersen           42            20.2               190        4250
# ℹ 334 more rows
# ℹ 2 more variables: sex <chr>, year <dbl>
…
# A tibble: 344 × 8
   species island    bill_length_mm bill_depth_mm flipper_length_mm body_mass_g
   <chr>   <chr>              <dbl>         <dbl>             <dbl>       <dbl>
 1 Adelie  Torgersen           39.1          18.7               181        3750
 2 Adelie  Torgersen           39.5          17.4               186        3800
 3 Adelie  Torgersen           40.3          18                 195        3250
 4 Adelie  Torgersen           NA            NA                  NA          NA
 5 Adelie  Torgersen           36.7          19.3               193        3450
 6 Adelie  Torgersen           39.3          20.6               190        3650
 7 Adelie  Torgersen           38.9          17.8               181        3625
 8 Adelie  Torgersen           39.2          19.6               195        4675
 9 Adelie  Torgersen           34.1          18.1               193        3475
10 Adelie  Torgersen           42            20.2               190        4250
# ℹ 334 more rows
# ℹ 2 more variables: sex <chr>, year <dbl>
…
df_penguins

# A tibble: 999 × 5
   species sex                                          name      value my_color
   <chr>   <glue>                                       <glue>    <dbl> <chr>   
 1 Adelie  <span style = 'color:#66b3ff;'>male</span>   **Bill L…  39.1 #66b3ff 
 2 Adelie  <span style = 'color:#66b3ff;'>male</span>   **Bill D…  18.7 #66b3ff 
 3 Adelie  <span style = 'color:#66b3ff;'>male</span>   **Flippe… 181   #66b3ff 
 4 Adelie  <span style = 'color:#8c8c8c;'>female</span> **Bill L…  39.5 #8c8c8c 
 5 Adelie  <span style = 'color:#8c8c8c;'>female</span> **Bill D…  17.4 #8c8c8c 
 6 Adelie  <span style = 'color:#8c8c8c;'>female</span> **Flippe… 186   #8c8c8c 
 7 Adelie  <span style = 'color:#8c8c8c;'>female</span> **Bill L…  40.3 #8c8c8c 
 8 Adelie  <span style = 'color:#8c8c8c;'>female</span> **Bill D…  18   #8c8c8c 
 9 Adelie  <span style = 'color:#8c8c8c;'>female</span> **Flippe… 195   #8c8c8c 
10 Adelie  <span style = 'color:#8c8c8c;'>female</span> **Bill L…  36.7 #8c8c8c 
# ℹ 989 more rows
…
Read a dataset with base R

Return a data.frame object.

read.csv, read.csv2, read.delim can also be used.

Cannot read .xsl files (we have to use another package).

Read a dataset with readr

read_tsv(file = "iris.tsv")

# A tibble: 150 × 5
   Sepal.Length Sepal.Width Petal.Length Petal.Width Species
          <dbl>       <dbl>        <dbl>       <dbl> <chr>  
 1          5.1         3.5          1.4         0.2 setosa 
 2          4.9         3            1.4         0.2 setosa 
 3          4.7         3.2          1.3         0.2 setosa 
 4          4.6         3.1          1.5         0.2 setosa 
 5          5           3.6          1.4         0.2 setosa 
 6          5.4         3.9          1.7         0.4 setosa 
 7          4.6         3.4          1.4         0.3 setosa 
 8          5           3.4          1.5         0.2 setosa 
 9          4.4         2.9          1.4         0.2 setosa 
10          4.9         3.1          1.5         0.1 setosa 
# ℹ 140 more rows
…
